<svg version="1.2" xmlns="http://www.w3.org/2000/svg" xmlns:xlink="http://www.w3.org/1999/xlink" overflow="visible" preserveAspectRatio="none" viewBox="0 0 30 30.25" xml:space="preserve" height="18" width="18" y="0px" x="0px" id="Layer_1_1570170945672"><g transform="translate(1, 1)"><g>
	<g>
		<path d="M13.918,15.198c0.028,0,0.056,0,0.088,0c0.011,0,0.022,0,0.033,0c0.017,0,0.038,0,0.055,0    c1.614-0.028,2.919-0.596,3.883-1.679c2.119-2.389,1.767-6.487,1.729-6.877c-0.138-2.936-1.525-4.34-2.671-4.994    c-0.854-0.491-1.85-0.755-2.962-0.777h-0.038c-0.006,0-0.017,0-0.022,0h-0.033c-0.611,0-1.812,0.099-2.963,0.755    C9.86,2.279,8.45,3.683,8.313,6.642c-0.038,0.39-0.391,4.488,1.729,6.877C11,14.603,12.306,15.17,13.918,15.198z M9.783,6.779    c0-0.017,0.006-0.033,0.006-0.044c0.181-3.947,2.984-4.371,4.185-4.371h0.021c0.011,0,0.028,0,0.044,0    c1.486,0.031,4.015,0.638,4.185,4.371c0,0.017,0,0.033,0.006,0.044c0.005,0.039,0.391,3.784-1.36,5.754    c-0.693,0.781-1.618,1.168-2.835,1.179c-0.011,0-0.017,0-0.028,0l0,0c-0.011,0-0.016,0-0.027,0    c-1.212-0.011-2.143-0.398-2.831-1.179C9.403,10.572,9.778,6.813,9.783,6.779z" fill="#0098FF" vector-effect="non-scaling-stroke"/>
		<path d="M25.323,21.993c0-0.005,0-0.011,0-0.017c0-0.044-0.006-0.087-0.006-0.138    c-0.033-1.089-0.104-3.64-2.495-4.454c-0.016-0.006-0.038-0.012-0.055-0.017c-2.482-0.633-4.549-2.064-4.57-2.081    c-0.335-0.238-0.799-0.154-1.035,0.181c-0.236,0.336-0.153,0.799,0.182,1.035c0.094,0.067,2.285,1.592,5.028,2.297    c1.282,0.457,1.426,1.829,1.464,3.084c0,0.049,0,0.093,0.006,0.138c0.005,0.495-0.027,1.261-0.115,1.701    c-0.893,0.508-4.39,2.257-9.709,2.257c-5.297,0-8.815-1.755-9.714-2.262c-0.088-0.441-0.126-1.207-0.115-1.702    c0-0.044,0.006-0.089,0.006-0.138c0.038-1.255,0.181-2.627,1.464-3.084c2.743-0.705,4.935-2.235,5.028-2.297    c0.336-0.235,0.419-0.698,0.182-1.035c-0.237-0.335-0.7-0.418-1.036-0.181c-0.021,0.017-2.076,1.448-4.57,2.081    c-0.022,0.006-0.039,0.011-0.055,0.017c-2.39,0.82-2.462,3.371-2.495,4.455c0,0.05,0,0.093-0.005,0.138c0,0.005,0,0.011,0,0.017    c-0.006,0.286-0.012,1.757,0.28,2.495c0.056,0.143,0.154,0.264,0.287,0.346c0.166,0.109,4.125,2.633,10.75,2.633    s10.584-2.527,10.749-2.633c0.127-0.082,0.231-0.203,0.286-0.346C25.334,23.751,25.329,22.28,25.323,21.993z" fill="#0098FF" vector-effect="non-scaling-stroke"/>
	</g>
</g></g></svg>