<?xml version="1.0" standalone="no"?>
<svg version="1.2" xmlns="http://www.w3.org/2000/svg" xmlns:xlink="http://www.w3.org/1999/xlink" overflow="visible" preserveAspectRatio="none" viewBox="0 0 25.625 41" xml:space="preserve" height="19" width="11.205128205128206" y="0px" x="0px" id="Capa_1_1566799792868"><g transform="translate(1, 1)"><g>
	<g>
		<path d="M3.814,37.342c-0.525,0-1.052-0.2-1.455-0.603c-0.804-0.804-0.804-2.104,0-2.908l14.245-14.245    L2.359,5.342c-0.804-0.804-0.804-2.105,0-2.908c0.803-0.804,2.105-0.804,2.908,0l15.698,15.698c0.804,0.804,0.804,2.105,0,2.907    L5.268,36.739C4.867,37.141,4.34,37.342,3.814,37.342z" fill="#0098FF" vector-effect="non-scaling-stroke"/>
	</g>
</g></g></svg>