<svg xmlns="http://www.w3.org/2000/svg" viewBox="0 0 89 49" width="89" height="49">
	<style>
		tspan { white-space:pre }
		.shp0 { fill: #000102 } 
		.shp1 { fill: #186084 } 
	</style>
	<g id="Layer">
		<g id="Layer">
			<g id="Layer">
				<path id="Layer" class="shp0" d="M87.58 20.86C87.58 20.86 89.04 30.14 89.15 31.67C89.25 33.2 85.01 48.28 54.52 48.89C21.93 49.55 1.06 27.55 1.06 27.55L0.82 25.86L36.48 36.42C36.48 36.42 59.16 36.02 62.7 35.51C66.25 35 83.68 26.79 83.68 26.79L87.58 20.86Z" />
				<path id="Layer" class="shp0" d="M64.31 22.84C68.37 10.54 31.9 4.71 31.9 4.71L31.73 3.55L41.01 2.21C41.01 2.21 72.51 6.76 74.76 15.18C77.01 23.62 64.31 22.84 64.31 22.84Z" />
				<path id="Layer" class="shp1" d="M0.82 25.87L6.45 22.27C6.45 22.27 22.03 29.15 35.61 32.05C49.19 34.96 67.02 25.38 67.47 16.18C67.92 6.98 31.73 3.55 31.73 3.55L37.34 0.48C37.34 0.48 89.69 1.7 87.51 23.61C85.34 45.51 30.02 51.54 0.82 25.87Z" />
			</g>
		</g>
	</g>
</svg>