<svg xmlns="http://www.w3.org/2000/svg" viewBox="0 0 88 49" width="88" height="49">
	<style>
		tspan { white-space:pre }
		.shp0 { fill: #a8aeaf } 
		.shp1 { fill: #dfe7ea } 
	</style>
	<g id="Layer">
		<g id="Layer">
			<g id="Layer">
				<path id="Layer" class="shp0" d="M86.24 19.03C86.24 19.03 87.87 28.28 88 29.81C88.13 31.33 84.17 46.49 53.7 47.65C21.14 48.9 -0.12 27.29 -0.12 27.29L-0.4 25.6L35.44 35.51C35.44 35.51 58.11 34.7 61.64 34.13C65.17 33.55 82.45 25.02 82.45 25.02L86.24 19.03Z" />
				<path id="Layer" class="shp0" d="M63.01 21.43C66.85 9.06 30.29 3.89 30.29 3.89L30.1 2.73L39.36 1.22C39.36 1.22 70.92 5.2 73.33 13.58C75.73 21.97 63.01 21.43 63.01 21.43Z" />
				<path id="Layer" class="shp1" d="M-0.4 25.61L5.17 21.9C5.17 21.9 20.87 28.5 34.49 31.16C48.12 33.81 65.77 23.92 66.05 14.71C66.34 5.51 30.1 2.73 30.1 2.73L35.65 -0.43C35.65 -0.43 88 -0.17 86.23 21.77C84.45 43.71 29.26 50.75 -0.4 25.61Z" />
			</g>
		</g>
	</g>
</svg>