<svg version="1.2" xmlns="http://www.w3.org/2000/svg" xmlns:xlink="http://www.w3.org/1999/xlink" overflow="visible" preserveAspectRatio="none" viewBox="0 0 25.625 41" xml:space="preserve" height="20" width="12" y="0px" x="0px" id="Capa_1_1567070459061"><g transform="translate(1, 1)"><g>
	<g>
		<path d="M3.814,37.342c-0.525,0-1.052-0.199-1.455-0.603c-0.804-0.804-0.804-2.104,0-2.908l14.245-14.245    L2.359,5.342c-0.804-0.804-0.804-2.105,0-2.908c0.803-0.804,2.105-0.804,2.908,0l15.698,15.698c0.805,0.804,0.805,2.104,0,2.907    l-15.697,15.7C4.867,37.141,4.34,37.342,3.814,37.342z" fill="#FFFFFF" vector-effect="non-scaling-stroke"/>
	</g>
</g></g></svg>